[
	{
		"_id": "a-100",
		"_parentId": "co-100",
		"_type": "article",
		"_classes": "banner_01",
		"body": "",
		"title": ""
	},
	{
		"_id": "a-200",
		"_parentId": "co-200",
		"_type": "article",
		"_classes": "banner_02",
		"body": "",
		"title": ""
	},    
	{
		"_id": "a-300",
		"_parentId": "co-300",
		"_type": "article",
		"_classes": "banner_03",
		"body": "",
		"title": ""
	},
	{
		"_id": "a-400",
		"_parentId": "co-400",
		"_type": "article",
		"_classes": "banner_04",
		"body": "",
		"title": ""
	},
	{
		"_id": "a-500",
		"_parentId": "co-500",
		"_type": "article",
		"_classes": "banner_04",
		"body": "",
		"title": ""
	},
	{
		"_id": "a-600",
		"_parentId": "co-600",
		"_type": "article",
		"_classes": "banner_05",
		"body": "",
		"title": ""
	}
]